{
    "data": {
        "ChIJzyKLq5EDBDQRO67s-AxRTaY": {
            "geometry": {
                "location": {
                    "lat": 22.2626839,
                    "lng": 114.2490259
                },
                "viewport": {
                    "northeast": {
                        "lat": 22.2640328802915,
                        "lng": 114.2503748802915
                    },
                    "southwest": {
                        "lat": 22.2613349197085,
                        "lng": 114.2476769197085
                    }
                }
            },
            "indicator": {
                "description": "Hong Kong, Siu Sai Wan, 家之味小食(小西灣街市)",
                "region": "hkg",
                "source": "google_place_api",
                "secondaryDescription": null,
                "terms": null,
                "viewport": "hk_sai_wan"
            },
            "locale": {
                "en": {
                    "address": "Siu Sai Wan, Hong Kong",
                    "title": "家之味小食(小西灣街市)"
                },
                "zh_hk": {
                    "address": "香港小西灣",
                    "title": "家之味小食(小西灣街市)"
                }
            },
            "md": 1572841122029,
            "types": [
                "restaurant",
                "food",
                "point_of_interest",
                "establishment"
            ],
            "opening_hours": {
                "periods": {
                    "sun": [
                        {
                            "duration": 43200,
                            "open": 25200,
                            "close": 68400
                        }
                    ],
                    "mon": [
                        {
                            "duration": 43200,
                            "open": 25200,
                            "close": 68400
                        }
                    ],
                    "tue": [
                        {
                            "duration": 43200,
                            "open": 25200,
                            "close": 68400
                        }
                    ],
                    "wed": [
                        {
                            "duration": 43200,
                            "open": 25200,
                            "close": 68400
                        }
                    ],
                    "thur": [
                        {
                            "duration": 43200,
                            "open": 25200,
                            "close": 68400
                        }
                    ],
                    "fri": [
                        {
                            "duration": 43200,
                            "open": 25200,
                            "close": 68400
                        }
                    ],
                    "sat": [
                        {
                            "duration": 43200,
                            "open": 25200,
                            "close": 68400
                        }
                    ]
                },
                "readable": {
                    "mon": "7:00 AM – 7:00 PM",
                    "tue": "7:00 AM – 7:00 PM",
                    "thur": "7:00 AM – 7:00 PM",
                    "fri": "7:00 AM – 7:00 PM",
                    "sat": "7:00 AM – 7:00 PM",
                    "sun": "7:00 AM – 7:00 PM"
                }
            },
            "details": {
                "price_level": null,
                "phone": null,
                "website": null,
                "rating": 2.7,
                "rated": 3
            },
            "status": "onStage",
            "counter": {
                "bundle0001": 100
            },
            "referee": 0,
            "certificate": {
                "scorch": {
                    "bundle0001": {
                        "issuer": "map.yelloNblue",
                        "md": 1581595529481,
                        "checker": null
                    }
                }
            }
        },
        "ChIJzzkVbXABBDQREhkpg2UdWGc": {
            "geometry": {
                "location": {
                    "lat": 22.28508,
                    "lng": 114.1514335
                },
                "viewport": {
                    "northeast": {
                        "lat": 22.2863644302915,
                        "lng": 114.1527776802915
                    },
                    "southwest": {
                        "lat": 22.2836664697085,
                        "lng": 114.1500797197085
                    }
                }
            },
            "indicator": {
                "description": "Hong Kong, Sheung Wan, Jervois Street, AKVO酒店花朝.駿宮 Fat Duck Den Cuisine",
                "region": "hkg",
                "source": "google_place_api",
                "secondaryDescription": null,
                "terms": null,
                "viewport": "hk_sheung_wan"
            },
            "locale": {
                "en": {
                    "address": "Hong Kong, Sheung Wan, Jervois St, 57號AKVO酒店1-3樓",
                    "title": "花朝.駿宮 Fat Duck Den Cuisine"
                },
                "zh_hk": {
                    "address": "香港上環蘇杭街57號AKVO酒店1-3樓",
                    "title": "花朝.駿宮 Fat Duck Den Cuisine"
                }
            },
            "md": 1572596131015,
            "types": [
                "restaurant",
                "food",
                "point_of_interest",
                "establishment"
            ],
            "opening_hours": {
                "periods": {
                    "sun": [
                        {
                            "duration": 18000,
                            "open": 39600,
                            "close": 57600
                        },
                        {
                            "duration": 18000,
                            "open": 64800,
                            "close": 82800
                        }
                    ],
                    "mon": [
                        {
                            "duration": 18000,
                            "open": 39600,
                            "close": 57600
                        },
                        {
                            "duration": 18000,
                            "open": 64800,
                            "close": 82800
                        }
                    ],
                    "tue": [
                        {
                            "duration": 18000,
                            "open": 39600,
                            "close": 57600
                        },
                        {
                            "duration": 18000,
                            "open": 64800,
                            "close": 82800
                        }
                    ],
                    "wed": [
                        {
                            "duration": 18000,
                            "open": 39600,
                            "close": 57600
                        },
                        {
                            "duration": 18000,
                            "open": 64800,
                            "close": 82800
                        }
                    ],
                    "thur": [
                        {
                            "duration": 18000,
                            "open": 39600,
                            "close": 57600
                        },
                        {
                            "duration": 18000,
                            "open": 64800,
                            "close": 82800
                        }
                    ],
                    "fri": [
                        {
                            "duration": 18000,
                            "open": 39600,
                            "close": 57600
                        },
                        {
                            "duration": 18000,
                            "open": 64800,
                            "close": 82800
                        }
                    ],
                    "sat": [
                        {
                            "duration": 18000,
                            "open": 39600,
                            "close": 57600
                        },
                        {
                            "duration": 18000,
                            "open": 64800,
                            "close": 82800
                        }
                    ]
                },
                "readable": {
                    "mon": "11:00 AM – 4:00 PM, 6:00 – 11:00 PM",
                    "tue": "11:00 AM – 4:00 PM, 6:00 – 11:00 PM",
                    "thur": "11:00 AM – 4:00 PM, 6:00 – 11:00 PM",
                    "fri": "11:00 AM – 4:00 PM, 6:00 – 11:00 PM",
                    "sat": "11:00 AM – 4:00 PM, 6:00 – 11:00 PM",
                    "sun": "11:00 AM – 4:00 PM, 6:00 – 11:00 PM"
                }
            },
            "details": {
                "price_level": null,
                "phone": "2648 1938",
                "website": null,
                "rating": 3.9,
                "rated": 25
            },
            "status": "onStage",
            "counter": {
                "bundle0002": 100
            },
            "referee": 0,
            "certificate": {
                "scorch": {
                    "bundle0002": {
                        "issuer": "map.yelloNblue",
                        "md": 1581595529481,
                        "checker": null
                    }
                }
            }
        }
    }
}